<?xml version="1.0" encoding="UTF-8" standalone="no"?>
<svg
   xmlns:dc="http://purl.org/dc/elements/1.1/"
   xmlns:cc="http://creativecommons.org/ns#"
   xmlns:rdf="http://www.w3.org/1999/02/22-rdf-syntax-ns#"
   xmlns:svg="http://www.w3.org/2000/svg"
   xmlns="http://www.w3.org/2000/svg"
   xmlns:xlink="http://www.w3.org/1999/xlink"
   xmlns:sodipodi="http://sodipodi.sourceforge.net/DTD/sodipodi-0.dtd"
   xmlns:inkscape="http://www.inkscape.org/namespaces/inkscape"
   inkscape:version="1.0 (4035a4fb49, 2020-05-01)"
   sodipodi:docname="gold.svg"
   id="svg20"
   version="1.1"
   fill="none"
   viewBox="0 0 244.24262 250"
   height="250"
   width="244.24261">
  <metadata
     id="metadata26">
    <rdf:RDF>
      <cc:Work
         rdf:about="">
        <dc:format>image/svg+xml</dc:format>
        <dc:type
           rdf:resource="http://purl.org/dc/dcmitype/StillImage" />
        <dc:title></dc:title>
      </cc:Work>
    </rdf:RDF>
  </metadata>
  <defs
     id="defs24">
    <linearGradient
       id="linearGradient2235"
       inkscape:collect="always">
      <stop
         id="stop2231"
         offset="0"
         style="stop-color:#f39c1f;stop-opacity:1" />
      <stop
         id="stop2233"
         offset="1"
         style="stop-color:#fdbc4b;stop-opacity:1" />
    </linearGradient>
    <linearGradient
       gradientUnits="userSpaceOnUse"
       y2="0"
       x2="121.98886"
       y1="244"
       x1="121.98886"
       id="linearGradient2237"
       xlink:href="#linearGradient2235"
       inkscape:collect="always" />
    <linearGradient
       y2="-176.16415"
       id="linearGradient2292-9"
       x1="121.99"
       x2="121.99"
       y1="250"
       gradientTransform="translate(900.00866,8.00041)"
       gradientUnits="userSpaceOnUse">
      <stop
         style="stop-color:#1d99f3;stop-opacity:1"
         stop-color="#da4453"
         offset="0"
         id="stop9" />
      <stop
         style="stop-color:#fcfcfc;stop-opacity:1"
         stop-color="#3daee9"
         offset="1"
         id="stop11" />
    </linearGradient>
  </defs>
  <sodipodi:namedview
     inkscape:snap-intersection-paths="true"
     inkscape:object-paths="true"
     inkscape:snap-bbox-midpoints="true"
     inkscape:snap-bbox-edge-midpoints="true"
     inkscape:bbox-nodes="true"
     inkscape:bbox-paths="true"
     inkscape:snap-bbox="true"
     inkscape:showpageshadow="false"
     showborder="true"
     inkscape:current-layer="svg20"
     inkscape:window-maximized="1"
     inkscape:window-y="20"
     inkscape:window-x="0"
     inkscape:cy="244.52703"
     inkscape:cx="166.61244"
     inkscape:zoom="0.35618314"
     showguides="false"
     inkscape:snap-page="true"
     showgrid="false"
     id="namedview22"
     inkscape:window-height="748"
     inkscape:window-width="1366"
     inkscape:pageshadow="2"
     inkscape:pageopacity="1"
     guidetolerance="10"
     gridtolerance="10"
     objecttolerance="10"
     borderopacity="0.32156863"
     bordercolor="#ffffff"
     pagecolor="#232629">
    <inkscape:grid
       originy="0"
       originx="600"
       id="grid2261"
       type="xygrid" />
  </sodipodi:namedview>
  <circle
     style="fill:#d35400;fill-opacity:1;stroke-width:56.5228;stroke-linecap:square;stroke-linejoin:round;stroke-dashoffset:531.552"
     id="circle2257"
     cx="122.24261"
     cy="128"
     r="122" />
  <circle
     r="122"
     cy="122"
     cx="122"
     id="path2217"
     style="fill:url(#linearGradient2237);fill-opacity:1;stroke-width:56.5228;stroke-linecap:square;stroke-linejoin:round;stroke-dashoffset:531.552" />
  <path
     d="m 121.6875,10 c -24.41298,0 -46.97475,7.82089 -65.33594,21.085938 3.05298,1.906627 6.11001,3.815374 9.29492,5.792968 C 81.71864,26.218824 100.98404,20 121.6875,20 c 56.06623,0 101.625,45.558267 101.625,101.625 0,56.06721 -45.5588,101.625 -101.625,101.625 -56.06686,0 -101.625,-45.55782 -101.625,-101.625 0,-19.31904 5.41059,-37.389519 14.79492,-52.779297 C 32.40517,66.287672 30.01345,63.79589 27.67578,61.369141 16.5261,78.743754 10.0625,99.420914 10.0625,121.625 c 0,61.70779 49.9168,111.625 111.625,111.625 61.70778,0 111.625,-49.91722 111.625,-111.625 C 233.3125,59.917012 183.39529,10 121.6875,10 Z"
     style="color:#000000;font-style:normal;font-variant:normal;font-weight:normal;font-stretch:normal;font-size:medium;line-height:normal;font-family:sans-serif;font-variant-ligatures:normal;font-variant-position:normal;font-variant-caps:normal;font-variant-numeric:normal;font-variant-alternates:normal;font-variant-east-asian:normal;font-feature-settings:normal;font-variation-settings:normal;text-indent:0;text-align:start;text-decoration:none;text-decoration-line:none;text-decoration-style:solid;text-decoration-color:#000000;letter-spacing:normal;word-spacing:normal;text-transform:none;writing-mode:lr-tb;direction:ltr;text-orientation:mixed;dominant-baseline:auto;baseline-shift:baseline;text-anchor:start;white-space:normal;shape-padding:0;shape-margin:0;inline-size:0;clip-rule:nonzero;display:inline;overflow:visible;visibility:visible;isolation:auto;mix-blend-mode:normal;color-interpolation:sRGB;color-interpolation-filters:linearRGB;solid-color:#000000;solid-opacity:1;vector-effect:none;fill:#ffffff;fill-opacity:1;fill-rule:nonzero;stroke:none;stroke-width:10;stroke-linecap:butt;stroke-linejoin:miter;stroke-miterlimit:4;stroke-dasharray:none;stroke-dashoffset:0;stroke-opacity:1;color-rendering:auto;image-rendering:auto;shape-rendering:auto;text-rendering:auto;enable-background:accumulate;stop-color:#000000"
     id="path2221" />
  <path
     style="fill:#ffffff;fill-opacity:1"
     d="m 10.61914,15.931641 c -1.52235,0.08518 -2.96388,0.744447 -4.22461,2.248047 -3.22945,4.116999 -0.32014,8.254768 3.33203,11.605468 3.65229,3.3508 53.62181,55.017238 67.00391,70.335934 10.50552,12.02593 32.6201,29.78988 49.18359,28.32032 6.08105,4.56199 20.75126,15.4569 25.70899,18.07226 -0.16994,2.36091 0.23078,4.77222 1.00976,7.17774 4.239,13.093 21.28874,22.0282 10.80274,35.5332 20.187,-11.419 26.06279,-31.31028 18.09179,-45.86328 -4.97856,-9.08986 -12.52492,-12.24419 -18.94336,-10.29688 -3.79501,-4.59029 -19.17225,-18.10591 -23.86328,-22.20117 C 135.64769,94.778982 114.59871,77.650279 101.08789,70.089844 83.33749,60.156944 22.47,21.927222 18.4375,19.044922 15.91738,17.243609 13.1564,15.789667 10.61914,15.931641 Z"
     id="path12" />
  <path
     sodipodi:nodetypes="ccccccc"
     style="fill:#ffffff;fill-opacity:1"
     id="path16"
     fill="white"
     d="m 40.6882,122.335 c 7.0092,16.381 47.8302,60.097 100.4368,31.38 -0.227,2.455 0.174,4.967 0.985,7.473 1.439,4.443 4.352,8.407 7.164,12.233 4.969,6.761 9.621,13.091 5.263,20.872 -18.062,7.141 -39.306,5.26 -54.7782,0.025 C 67.0356,183.247 45.3745,154.481 40.6882,122.335 Z"
     clip-rule="evenodd"
     fill-rule="evenodd" />
</svg>
